\relax 
\providecommand\hyper@newdestlabel[2]{}
\@writefile{toc}{\beamer@sectionintoc {4}{Descri\IeC {\c c}\IeC {\~a}o da Aplica\IeC {\c c}\IeC {\~a}o}{17}{0}{4}}
\@writefile{nav}{\headcommand {\sectionentry {4}{Descri\IeC {\c c}\IeC {\~a}o da Aplica\IeC {\c c}\IeC {\~a}o}{17}{Descri\IeC {\c c}\IeC {\~a}o da Aplica\IeC {\c c}\IeC {\~a}o}{0}}}
\@writefile{nav}{\headcommand {\beamer@sectionpages {5}{16}}}
\@writefile{nav}{\headcommand {\beamer@subsectionpages {5}{16}}}
\@writefile{nav}{\headcommand {\slideentry {4}{0}{1}{17/18}{}{0}}}
\@writefile{nav}{\headcommand {\beamer@framepages {17}{18}}}
\@writefile{nav}{\headcommand {\slideentry {4}{0}{2}{19/19}{}{0}}}
\@writefile{nav}{\headcommand {\beamer@framepages {19}{19}}}
\@writefile{nav}{\headcommand {\slideentry {4}{0}{3}{20/20}{}{0}}}
\@writefile{nav}{\headcommand {\beamer@framepages {20}{20}}}
\@writefile{nav}{\headcommand {\slideentry {4}{0}{4}{21/21}{}{0}}}
\@writefile{nav}{\headcommand {\beamer@framepages {21}{21}}}
\@writefile{nav}{\headcommand {\slideentry {4}{0}{5}{22/22}{}{0}}}
\@writefile{nav}{\headcommand {\beamer@framepages {22}{22}}}
\@writefile{nav}{\headcommand {\slideentry {4}{0}{6}{23/23}{}{0}}}
\@writefile{nav}{\headcommand {\beamer@framepages {23}{23}}}
\@writefile{nav}{\headcommand {\slideentry {4}{0}{7}{24/24}{}{0}}}
\@writefile{nav}{\headcommand {\beamer@framepages {24}{24}}}
\@writefile{nav}{\headcommand {\slideentry {4}{0}{8}{25/25}{}{0}}}
\@writefile{nav}{\headcommand {\beamer@framepages {25}{25}}}
\newlabel{figure:passo3a}{{0f}{26}{Subfigure 0f}{Doc-Start}{}}
\@writefile{snm}{\beamer@slide {figure:passo3a}{26}}
\newlabel{sub@figure:passo3a}{{(f)}{f}{Subfigure 0f\relax }{Doc-Start}{}}
\@writefile{nav}{\headcommand {\slideentry {4}{0}{9}{26/26}{}{0}}}
\@writefile{nav}{\headcommand {\beamer@framepages {26}{26}}}
\@writefile{nav}{\headcommand {\slideentry {4}{0}{10}{27/27}{}{0}}}
\@writefile{nav}{\headcommand {\beamer@framepages {27}{27}}}
\newlabel{figure:passo5b}{{0g}{28}{Subfigure 0g}{Doc-Start}{}}
\@writefile{snm}{\beamer@slide {figure:passo5b}{28}}
\newlabel{sub@figure:passo5b}{{(g)}{g}{Subfigure 0g\relax }{Doc-Start}{}}
\@writefile{nav}{\headcommand {\slideentry {4}{0}{11}{28/28}{}{0}}}
\@writefile{nav}{\headcommand {\beamer@framepages {28}{28}}}
\newlabel{figure:passo5c}{{-1h}{29}{Subfigure -1h}{Doc-Start}{}}
\@writefile{snm}{\beamer@slide {figure:passo5c}{29}}
\newlabel{sub@figure:passo5c}{{(h)}{h}{Subfigure -1h\relax }{Doc-Start}{}}
\@writefile{nav}{\headcommand {\slideentry {4}{0}{12}{29/29}{}{0}}}
\@writefile{nav}{\headcommand {\beamer@framepages {29}{29}}}
\@setckpt{aplicacao}{
\setcounter{page}{30}
\setcounter{equation}{0}
\setcounter{enumi}{0}
\setcounter{enumii}{0}
\setcounter{enumiii}{0}
\setcounter{enumiv}{0}
\setcounter{footnote}{0}
\setcounter{mpfootnote}{0}
\setcounter{beamerpauses}{1}
\setcounter{bookmark@seq@number}{4}
\setcounter{lecture}{0}
\setcounter{part}{0}
\setcounter{section}{4}
\setcounter{subsection}{0}
\setcounter{subsubsection}{0}
\setcounter{subsectionslide}{12}
\setcounter{framenumber}{20}
\setcounter{figure}{-2}
\setcounter{table}{0}
\setcounter{parentequation}{0}
\setcounter{theorem}{0}
\setcounter{ABCIaux}{0}
\setcounter{ABCImax}{0}
\setcounter{LT@tables}{0}
\setcounter{LT@chunks}{0}
\setcounter{ContinuedFloat}{2}
\setcounter{KVtest}{0}
\setcounter{subfigure}{8}
\setcounter{subfigure@save}{8}
\setcounter{depth}{1}
\setcounter{subtable}{0}
\setcounter{subtable@save}{0}
\setcounter{section@level}{0}
}
