\beamer@endinputifotherversion {3.36pt}
\select@language {english}
\beamer@sectionintoc {1}{Problema}{3}{0}{1}
\beamer@sectionintoc {2}{Objetivos}{4}{0}{2}
\beamer@sectionintoc {3}{Metodologia}{5}{0}{3}
\beamer@sectionintoc {4}{Descri\IeC {\c c}\IeC {\~a}o da Aplica\IeC {\c c}\IeC {\~a}o}{17}{0}{4}
