\relax 
\providecommand\hyper@newdestlabel[2]{}
\@writefile{toc}{\beamer@sectionintoc {3}{Metodologia}{5}{0}{3}}
\@writefile{nav}{\headcommand {\sectionentry {3}{Metodologia}{5}{Metodologia}{0}}}
\@writefile{nav}{\headcommand {\beamer@sectionpages {4}{4}}}
\@writefile{nav}{\headcommand {\beamer@subsectionpages {4}{4}}}
\providecommand*\caption@xref[2]{\@setref\relax\@undefined{#1}}
\newlabel{fig:cabresto}{{\caption@xref {fig:cabresto}{ on input line 30}}{5}{Metodologia}{Doc-Start}{}}
\@writefile{snm}{\beamer@slide {fig:cabresto}{5}}
\newlabel{fig:betinha}{{1a}{5}{Subfigure 1a}{Doc-Start}{}}
\@writefile{snm}{\beamer@slide {fig:betinha}{5}}
\newlabel{sub@fig:betinha}{{(a)}{a}{Subfigure 1a\relax }{Doc-Start}{}}
\newlabel{fig:dairy}{{1b}{5}{Subfigure 1b}{Doc-Start}{}}
\@writefile{snm}{\beamer@slide {fig:dairy}{5}}
\newlabel{sub@fig:dairy}{{(b)}{b}{Subfigure 1b\relax }{Doc-Start}{}}
\newlabel{fig:betinha_dairy}{{\caption@xref {fig:betinha_dairy}{ on input line 30}}{5}{Metodologia}{Doc-Start}{}}
\@writefile{snm}{\beamer@slide {fig:betinha_dairy}{5}}
\@writefile{nav}{\headcommand {\slideentry {3}{0}{1}{5/5}{}{0}}}
\@writefile{nav}{\headcommand {\beamer@framepages {5}{5}}}
\newlabel{iniciar_coleta}{{1c}{6}{Subfigure 1c}{Doc-Start}{}}
\@writefile{snm}{\beamer@slide {iniciar_coleta}{6}}
\newlabel{sub@iniciar_coleta}{{(c)}{c}{Subfigure 1c\relax }{Doc-Start}{}}
\newlabel{parar_coleta}{{1d}{6}{Subfigure 1d}{Doc-Start}{}}
\@writefile{snm}{\beamer@slide {parar_coleta}{6}}
\newlabel{sub@parar_coleta}{{(d)}{d}{Subfigure 1d\relax }{Doc-Start}{}}
\newlabel{figura:app_coleta_trajetorias}{{\caption@xref {figura:app_coleta_trajetorias}{ on input line 57}}{6}{Metodologia}{Doc-Start}{}}
\@writefile{snm}{\beamer@slide {figura:app_coleta_trajetorias}{6}}
\@writefile{nav}{\headcommand {\slideentry {3}{0}{2}{6/6}{}{0}}}
\@writefile{nav}{\headcommand {\beamer@framepages {6}{6}}}
\@writefile{nav}{\headcommand {\slideentry {3}{0}{3}{7/10}{}{0}}}
\@writefile{nav}{\headcommand {\beamer@framepages {7}{10}}}
\citation{melo-etal:2016}
\citation{melo-etal:2016}
\citation{melo-etal:2016}
\citation{melo-etal:2016}
\citation{melo-etal:2016}
\citation{melo-etal:2016}
\citation{melo-etal:2016}
\citation{melo-etal:2016}
\citation{melo-etal:2016}
\citation{melo-etal:2016}
\citation{melo-etal:2016}
\citation{melo-etal:2016}
\@writefile{nav}{\headcommand {\slideentry {3}{0}{4}{11/16}{}{0}}}
\@writefile{nav}{\headcommand {\beamer@framepages {11}{16}}}
\@setckpt{metodologia}{
\setcounter{page}{17}
\setcounter{equation}{0}
\setcounter{enumi}{0}
\setcounter{enumii}{0}
\setcounter{enumiii}{0}
\setcounter{enumiv}{0}
\setcounter{footnote}{0}
\setcounter{mpfootnote}{0}
\setcounter{beamerpauses}{1}
\setcounter{bookmark@seq@number}{3}
\setcounter{lecture}{0}
\setcounter{part}{0}
\setcounter{section}{3}
\setcounter{subsection}{0}
\setcounter{subsubsection}{0}
\setcounter{subsectionslide}{4}
\setcounter{framenumber}{8}
\setcounter{figure}{0}
\setcounter{table}{0}
\setcounter{parentequation}{0}
\setcounter{theorem}{0}
\setcounter{ABCIaux}{0}
\setcounter{ABCImax}{0}
\setcounter{LT@tables}{0}
\setcounter{LT@chunks}{0}
\setcounter{ContinuedFloat}{0}
\setcounter{KVtest}{0}
\setcounter{subfigure}{4}
\setcounter{subfigure@save}{4}
\setcounter{depth}{1}
\setcounter{subtable}{0}
\setcounter{subtable@save}{0}
\setcounter{section@level}{0}
}
